{
	"name": "general",
	"description": "General test for es6-grammar",
	"dependencies": {
		"es6-grammar": {"version": "~master", "path": "../../"},
	},
	"configurations": [
		{
			"name": "default",
			"targetType": "executable"
		},
		{
			"name": "mem",
			"versions": ["Stats"],
			"dependencies": {"resusage": {"version": "~>0.2.0"}},
			"targetType": "executable"
		}
	]
}
